^D:\DRIVE\2017\PI-MARITA\LAB\OPENCVAPPLICATION-VS2017_OCV340_BASIC\OPENCVAPPLICATION-VS2017_OCV340_BASIC\STDAFX.CPP
D:\DRIVE\2017\PI-MARITA\LAB\OPENCVAPPLICATION-VS2017_OCV340_BASIC\OPENCVAPPLICATION-VS2017_OCV340_BASIC\X64\DEBUG\OPENCVAPPLICATION.PCH
D:\DRIVE\2017\PI-MARITA\LAB\OPENCVAPPLICATION-VS2017_OCV340_BASIC\OPENCVAPPLICATION-VS2017_OCV340_BASIC\X64\DEBUG\VC141.PDB
D:\DRIVE\2017\PI-MARITA\LAB\OPENCVAPPLICATION-VS2017_OCV340_BASIC\OPENCVAPPLICATION-VS2017_OCV340_BASIC\X64\DEBUG\VC141.IDB
D:\DRIVE\2017\PI-MARITA\LAB\OPENCVAPPLICATION-VS2017_OCV340_BASIC\OPENCVAPPLICATION-VS2017_OCV340_BASIC\X64\DEBUG\STDAFX.OBJ
^D:\DRIVE\2017\PI-MARITA\LAB\OPENCVAPPLICATION-VS2017_OCV340_BASIC\OPENCVAPPLICATION-VS2017_OCV340_BASIC\COMMON.CPP|D:\DRIVE\2017\PI-MARITA\LAB\OPENCVAPPLICATION-VS2017_OCV340_BASIC\OPENCVAPPLICATION-VS2017_OCV340_BASIC\OPENCVAPPLICATION.CPP
D:\DRIVE\2017\PI-MARITA\LAB\OPENCVAPPLICATION-VS2017_OCV340_BASIC\OPENCVAPPLICATION-VS2017_OCV340_BASIC\X64\DEBUG\VC141.PDB
D:\DRIVE\2017\PI-MARITA\LAB\OPENCVAPPLICATION-VS2017_OCV340_BASIC\OPENCVAPPLICATION-VS2017_OCV340_BASIC\X64\DEBUG\VC141.IDB
D:\DRIVE\2017\PI-MARITA\LAB\OPENCVAPPLICATION-VS2017_OCV340_BASIC\OPENCVAPPLICATION-VS2017_OCV340_BASIC\X64\DEBUG\COMMON.OBJ
^D:\DRIVE\2017\PI-MARITA\LAB\OPENCVAPPLICATION-VS2017_OCV340_BASIC\OPENCVAPPLICATION-VS2017_OCV340_BASIC\COMMON.CPP
D:\DRIVE\2017\PI-MARITA\LAB\OPENCVAPPLICATION-VS2017_OCV340_BASIC\OPENCVAPPLICATION-VS2017_OCV340_BASIC\X64\DEBUG\COMMON.OBJ
^D:\DRIVE\2017\PI-MARITA\LAB\OPENCVAPPLICATION-VS2017_OCV340_BASIC\OPENCVAPPLICATION-VS2017_OCV340_BASIC\OPENCVAPPLICATION.CPP
D:\DRIVE\2017\PI-MARITA\LAB\OPENCVAPPLICATION-VS2017_OCV340_BASIC\OPENCVAPPLICATION-VS2017_OCV340_BASIC\X64\DEBUG\VC141.PDB
D:\DRIVE\2017\PI-MARITA\LAB\OPENCVAPPLICATION-VS2017_OCV340_BASIC\OPENCVAPPLICATION-VS2017_OCV340_BASIC\X64\DEBUG\VC141.IDB
D:\DRIVE\2017\PI-MARITA\LAB\OPENCVAPPLICATION-VS2017_OCV340_BASIC\OPENCVAPPLICATION-VS2017_OCV340_BASIC\X64\DEBUG\OPENCVAPPLICATION.OBJ
